Base;Evolution;Condition;Niveau necessaire
1;2;LVL;16
2;3;LVL;32
4;5;LVL;16
5;6;LVL;36
7;8;LVL;16
8;9;LVL;36
10;11;LVL;7
11;12;LVL;10
13;14;LVL;7
14;15;LVL;10
16;17;LVL;18
17;18;LVL;36
19;20;LVL;20
21;22;LVL;20
23;24;LVL;22
25;26;PIERRE;FOUDRE
27;28;LVL;16
29;30;LVL;16
30;31;PIERRE;LUNE
32;33;LVL;16
33;34;PIERRE;LUNE
35;36;PIERRE;LUNE
37;38;PIERRE;FEU
39;40;PIERRE;LUNE
41;42;LVL;22
43;44;LVL;21
44;45;PIERRE;PLANTE
46;47;LVL;24
48;49;LVL;31
50;51;LVL;26
52;53;LVL;28
54;55;LVL;33
56;57;LVL;28
58;59;PIERRE;FEU
60;61;LVL;25
61;62;PIERRE;EAU
63;64;LVL;16
64;65;ECHANGE;
66;67;LVL;28
67;68;ECHANGE;
69;70;LVL;21
70;71;PIERRE;PLANTE
72;73;LVL;30
74;75;LVL;25
75;76;ECHANGE;
77;78;LVL;40
79;80;LVL;37
81;82;LVL;30
84;85;LVL;31
86;87;LVL;34
88;89;LVL;38
90;91;PIERRE;EAU
92;93;LVL;25
93;94;ECHANGE;
96;97;LVL;26
98;99;LVL;28
100;101;LVL;30
102;103;PIERRE;PLANTE
104;105;LVL;28
109;110;LVL;35
111;112;LVL;42
116;117;LVL;32
118;119;LVL;33
120;121;PIERRE;EAU
129;130;LVL;20
133;134;PIERRE;EAU
133;135;PIERRE;FOUDRE
133;136;PIERRE;FEU
138;139;LVL;40
140;141;LVL;40
147;148;LVL;30
148;149;LVL;55
